build/c432_tb.vcd
$date
	Thu Feb 13 09:50:16 2025
$end
$version
	Icarus Verilog
$end
$timescale
	1s
$end
$scope module testbench $end
$var wire 1 ! out $end
$var reg 1 " N1 $end
$var reg 1 # N102 $end
$var reg 1 $ N105 $end
$var reg 1 % N108 $end
$var reg 1 & N11 $end
$var reg 1 ' N112 $end
$var reg 1 ( N115 $end
$var reg 1 ) N118 $end
$var reg 1 * N119 $end
$var reg 1 + N122 $end
$var reg 1 , N123 $end
$var reg 1 - N126 $end
$var reg 1 . N127 $end
$var reg 1 / N130 $end
$var reg 1 0 N131 $end
$var reg 1 1 N134 $end
$var reg 1 2 N135 $end
$var reg 1 3 N138 $end
$var reg 1 4 N139 $end
$var reg 1 5 N14 $end
$var reg 1 6 N142 $end
$var reg 1 7 N143 $end
$var reg 1 8 N146 $end
$var reg 1 9 N147 $end
$var reg 1 : N150 $end
$var reg 1 ; N151 $end
$var reg 1 < N154 $end
$var reg 1 = N157 $end
$var reg 1 > N158 $end
$var reg 1 ? N159 $end
$var reg 1 @ N162 $end
$var reg 1 A N165 $end
$var reg 1 B N168 $end
$var reg 1 C N17 $end
$var reg 1 D N171 $end
$var reg 1 E N174 $end
$var reg 1 F N177 $end
$var reg 1 G N180 $end
$var reg 1 H N183 $end
$var reg 1 I N184 $end
$var reg 1 J N185 $end
$var reg 1 K N186 $end
$var reg 1 L N187 $end
$var reg 1 M N188 $end
$var reg 1 N N189 $end
$var reg 1 O N190 $end
$var reg 1 P N191 $end
$var reg 1 Q N192 $end
$var reg 1 R N193 $end
$var reg 1 S N194 $end
$var reg 1 T N195 $end
$var reg 1 U N196 $end
$var reg 1 V N197 $end
$var reg 1 W N198 $end
$var reg 1 X N199 $end
$var reg 1 Y N203 $end
$var reg 1 Z N21 $end
$var reg 1 [ N213 $end
$var reg 1 \ N223 $end
$var reg 1 ] N224 $end
$var reg 1 ^ N227 $end
$var reg 1 _ N230 $end
$var reg 1 ` N233 $end
$var reg 1 a N236 $end
$var reg 1 b N239 $end
$var reg 1 c N24 $end
$var reg 1 d N242 $end
$var reg 1 e N243 $end
$var reg 1 f N246 $end
$var reg 1 g N247 $end
$var reg 1 h N250 $end
$var reg 1 i N251 $end
$var reg 1 j N254 $end
$var reg 1 k N255 $end
$var reg 1 l N256 $end
$var reg 1 m N257 $end
$var reg 1 n N258 $end
$var reg 1 o N259 $end
$var reg 1 p N260 $end
$var reg 1 q N263 $end
$var reg 1 r N264 $end
$var reg 1 s N267 $end
$var reg 1 t N27 $end
$var reg 1 u N270 $end
$var reg 1 v N273 $end
$var reg 1 w N276 $end
$var reg 1 x N279 $end
$var reg 1 y N282 $end
$var reg 1 z N285 $end
$var reg 1 { N288 $end
$var reg 1 | N289 $end
$var reg 1 } N290 $end
$var reg 1 ~ N291 $end
$var reg 1 !" N292 $end
$var reg 1 "" N293 $end
$var reg 1 #" N294 $end
$var reg 1 $" N295 $end
$var reg 1 %" N296 $end
$var reg 1 &" N30 $end
$var reg 1 '" N300 $end
$var reg 1 (" N301 $end
$var reg 1 )" N302 $end
$var reg 1 *" N303 $end
$var reg 1 +" N304 $end
$var reg 1 ," N305 $end
$var reg 1 -" N306 $end
$var reg 1 ." N307 $end
$var reg 1 /" N308 $end
$var reg 1 0" N309 $end
$var reg 1 1" N319 $end
$var reg 1 2" N329 $end
$var reg 1 3" N330 $end
$var reg 1 4" N331 $end
$var reg 1 5" N332 $end
$var reg 1 6" N333 $end
$var reg 1 7" N334 $end
$var reg 1 8" N335 $end
$var reg 1 9" N336 $end
$var reg 1 :" N337 $end
$var reg 1 ;" N338 $end
$var reg 1 <" N339 $end
$var reg 1 =" N34 $end
$var reg 1 >" N340 $end
$var reg 1 ?" N341 $end
$var reg 1 @" N342 $end
$var reg 1 A" N343 $end
$var reg 1 B" N344 $end
$var reg 1 C" N345 $end
$var reg 1 D" N346 $end
$var reg 1 E" N347 $end
$var reg 1 F" N348 $end
$var reg 1 G" N349 $end
$var reg 1 H" N350 $end
$var reg 1 I" N351 $end
$var reg 1 J" N352 $end
$var reg 1 K" N353 $end
$var reg 1 L" N354 $end
$var reg 1 M" N355 $end
$var reg 1 N" N356 $end
$var reg 1 O" N357 $end
$var reg 1 P" N360 $end
$var reg 1 Q" N37 $end
$var reg 1 R" N370 $end
$var reg 1 S" N371 $end
$var reg 1 T" N372 $end
$var reg 1 U" N373 $end
$var reg 1 V" N374 $end
$var reg 1 W" N375 $end
$var reg 1 X" N376 $end
$var reg 1 Y" N377 $end
$var reg 1 Z" N378 $end
$var reg 1 [" N379 $end
$var reg 1 \" N380 $end
$var reg 1 ]" N381 $end
$var reg 1 ^" N386 $end
$var reg 1 _" N393 $end
$var reg 1 `" N399 $end
$var reg 1 a" N4 $end
$var reg 1 b" N40 $end
$var reg 1 c" N404 $end
$var reg 1 d" N407 $end
$var reg 1 e" N411 $end
$var reg 1 f" N414 $end
$var reg 1 g" N415 $end
$var reg 1 h" N416 $end
$var reg 1 i" N417 $end
$var reg 1 j" N418 $end
$var reg 1 k" N419 $end
$var reg 1 l" N420 $end
$var reg 1 m" N421 $end
$var reg 1 n" N422 $end
$var reg 1 o" N425 $end
$var reg 1 p" N428 $end
$var reg 1 q" N429 $end
$var reg 1 r" N43 $end
$var reg 1 s" N430 $end
$var reg 1 t" N431 $end
$var reg 1 u" N432 $end
$var reg 1 v" N47 $end
$var reg 1 w" N50 $end
$var reg 1 x" N53 $end
$var reg 1 y" N56 $end
$var reg 1 z" N60 $end
$var reg 1 {" N63 $end
$var reg 1 |" N66 $end
$var reg 1 }" N69 $end
$var reg 1 ~" N73 $end
$var reg 1 !# N76 $end
$var reg 1 "# N79 $end
$var reg 1 ## N8 $end
$var reg 1 $# N82 $end
$var reg 1 %# N86 $end
$var reg 1 &# N89 $end
$var reg 1 '# N92 $end
$var reg 1 (# N95 $end
$var reg 1 )# N99 $end
$scope module uut $end
$var wire 1 *# N1 $end
$var wire 1 +# N102 $end
$var wire 1 $ N105 $end
$var wire 1 ,# N108 $end
$var wire 1 -# N11 $end
$var wire 1 ' N112 $end
$var wire 1 ( N115 $end
$var wire 1 .# N118 $end
$var wire 1 /# N119 $end
$var wire 1 0# N122 $end
$var wire 1 1# N123 $end
$var wire 1 2# N126 $end
$var wire 1 3# N127 $end
$var wire 1 4# N130 $end
$var wire 1 5# N131 $end
$var wire 1 6# N134 $end
$var wire 1 7# N135 $end
$var wire 1 8# N138 $end
$var wire 1 9# N139 $end
$var wire 1 5 N14 $end
$var wire 1 :# N142 $end
$var wire 1 ;# N143 $end
$var wire 1 <# N146 $end
$var wire 1 =# N147 $end
$var wire 1 ># N150 $end
$var wire 1 ?# N151 $end
$var wire 1 @# N154 $end
$var wire 1 A# N157 $end
$var wire 1 B# N158 $end
$var wire 1 C# N159 $end
$var wire 1 D# N162 $end
$var wire 1 E# N165 $end
$var wire 1 F# N168 $end
$var wire 1 G# N17 $end
$var wire 1 H# N171 $end
$var wire 1 I# N174 $end
$var wire 1 J# N177 $end
$var wire 1 K# N180 $end
$var wire 1 L# N183 $end
$var wire 1 M# N184 $end
$var wire 1 N# N185 $end
$var wire 1 O# N186 $end
$var wire 1 P# N187 $end
$var wire 1 Q# N188 $end
$var wire 1 R# N189 $end
$var wire 1 S# N190 $end
$var wire 1 T# N191 $end
$var wire 1 U# N192 $end
$var wire 1 V# N193 $end
$var wire 1 W# N194 $end
$var wire 1 X# N195 $end
$var wire 1 Y# N196 $end
$var wire 1 Z# N197 $end
$var wire 1 [# N198 $end
$var wire 1 \# N199 $end
$var wire 1 ]# N203 $end
$var wire 1 Z N21 $end
$var wire 1 ^# N213 $end
$var wire 1 _# N223 $end
$var wire 1 `# N224 $end
$var wire 1 a# N227 $end
$var wire 1 b# N230 $end
$var wire 1 c# N233 $end
$var wire 1 d# N236 $end
$var wire 1 e# N239 $end
$var wire 1 f# N24 $end
$var wire 1 g# N242 $end
$var wire 1 h# N243 $end
$var wire 1 i# N246 $end
$var wire 1 j# N247 $end
$var wire 1 k# N250 $end
$var wire 1 l# N251 $end
$var wire 1 m# N254 $end
$var wire 1 n# N255 $end
$var wire 1 o# N256 $end
$var wire 1 p# N257 $end
$var wire 1 q# N258 $end
$var wire 1 r# N259 $end
$var wire 1 s# N260 $end
$var wire 1 t# N263 $end
$var wire 1 u# N264 $end
$var wire 1 v# N267 $end
$var wire 1 t N27 $end
$var wire 1 w# N270 $end
$var wire 1 x# N273 $end
$var wire 1 y# N276 $end
$var wire 1 z# N279 $end
$var wire 1 {# N282 $end
$var wire 1 |# N285 $end
$var wire 1 }# N288 $end
$var wire 1 ~# N289 $end
$var wire 1 !$ N290 $end
$var wire 1 "$ N291 $end
$var wire 1 #$ N292 $end
$var wire 1 $$ N293 $end
$var wire 1 %$ N294 $end
$var wire 1 &$ N295 $end
$var wire 1 '$ N296 $end
$var wire 1 ($ N30 $end
$var wire 1 )$ N300 $end
$var wire 1 *$ N301 $end
$var wire 1 +$ N302 $end
$var wire 1 ,$ N303 $end
$var wire 1 -$ N304 $end
$var wire 1 .$ N305 $end
$var wire 1 /$ N306 $end
$var wire 1 0$ N307 $end
$var wire 1 1$ N308 $end
$var wire 1 2$ N309 $end
$var wire 1 3$ N319 $end
$var wire 1 4$ N329 $end
$var wire 1 5$ N330 $end
$var wire 1 6$ N331 $end
$var wire 1 7$ N332 $end
$var wire 1 8$ N333 $end
$var wire 1 9$ N334 $end
$var wire 1 :$ N335 $end
$var wire 1 ;$ N336 $end
$var wire 1 <$ N337 $end
$var wire 1 =$ N338 $end
$var wire 1 >$ N339 $end
$var wire 1 =" N34 $end
$var wire 1 ?$ N340 $end
$var wire 1 @$ N341 $end
$var wire 1 A$ N342 $end
$var wire 1 B$ N343 $end
$var wire 1 C$ N344 $end
$var wire 1 D$ N345 $end
$var wire 1 E$ N346 $end
$var wire 1 F$ N347 $end
$var wire 1 G$ N348 $end
$var wire 1 H$ N349 $end
$var wire 1 I$ N350 $end
$var wire 1 J$ N351 $end
$var wire 1 K$ N352 $end
$var wire 1 L$ N353 $end
$var wire 1 M$ N354 $end
$var wire 1 N$ N355 $end
$var wire 1 O$ N356 $end
$var wire 1 P$ N357 $end
$var wire 1 Q$ N360 $end
$var wire 1 R$ N37 $end
$var wire 1 S$ N370 $end
$var wire 1 T$ N371 $end
$var wire 1 U$ N372 $end
$var wire 1 V$ N373 $end
$var wire 1 W$ N374 $end
$var wire 1 X$ N375 $end
$var wire 1 Y$ N376 $end
$var wire 1 Z$ N377 $end
$var wire 1 [$ N378 $end
$var wire 1 \$ N379 $end
$var wire 1 ]$ N380 $end
$var wire 1 ^$ N381 $end
$var wire 1 _$ N386 $end
$var wire 1 `$ N393 $end
$var wire 1 a$ N399 $end
$var wire 1 b$ N4 $end
$var wire 1 b" N40 $end
$var wire 1 c$ N404 $end
$var wire 1 d$ N407 $end
$var wire 1 e$ N411 $end
$var wire 1 f$ N414 $end
$var wire 1 g$ N415 $end
$var wire 1 h$ N416 $end
$var wire 1 i$ N417 $end
$var wire 1 j$ N418 $end
$var wire 1 k$ N419 $end
$var wire 1 l$ N420 $end
$var wire 1 m$ N421 $end
$var wire 1 n$ N422 $end
$var wire 1 o$ N425 $end
$var wire 1 p$ N428 $end
$var wire 1 q$ N429 $end
$var wire 1 r$ N43 $end
$var wire 1 s$ N430 $end
$var wire 1 t$ N431 $end
$var wire 1 u$ N432 $end
$var wire 1 v" N47 $end
$var wire 1 v$ N50 $end
$var wire 1 x" N53 $end
$var wire 1 w$ N56 $end
$var wire 1 z" N60 $end
$var wire 1 x$ N63 $end
$var wire 1 |" N66 $end
$var wire 1 y$ N69 $end
$var wire 1 ~" N73 $end
$var wire 1 z$ N76 $end
$var wire 1 "# N79 $end
$var wire 1 ## N8 $end
$var wire 1 {$ N82 $end
$var wire 1 %# N86 $end
$var wire 1 |$ N89 $end
$var wire 1 '# N92 $end
$var wire 1 }$ N95 $end
$var wire 1 )# N99 $end
$var wire 1 ~$ mid $end
$var wire 1 ! out $end
$scope module A $end
$var wire 1 *# N1 $end
$var wire 1 +# N102 $end
$var wire 1 $ N105 $end
$var wire 1 ,# N108 $end
$var wire 1 -# N11 $end
$var wire 1 ' N112 $end
$var wire 1 ( N115 $end
$var wire 1 .# N118 $end
$var wire 1 /# N119 $end
$var wire 1 0# N122 $end
$var wire 1 1# N123 $end
$var wire 1 2# N126 $end
$var wire 1 3# N127 $end
$var wire 1 4# N130 $end
$var wire 1 5# N131 $end
$var wire 1 6# N134 $end
$var wire 1 7# N135 $end
$var wire 1 8# N138 $end
$var wire 1 9# N139 $end
$var wire 1 5 N14 $end
$var wire 1 :# N142 $end
$var wire 1 ;# N143 $end
$var wire 1 <# N146 $end
$var wire 1 =# N147 $end
$var wire 1 ># N150 $end
$var wire 1 ?# N151 $end
$var wire 1 @# N154 $end
$var wire 1 A# N157 $end
$var wire 1 B# N158 $end
$var wire 1 C# N159 $end
$var wire 1 D# N162 $end
$var wire 1 E# N165 $end
$var wire 1 F# N168 $end
$var wire 1 G# N17 $end
$var wire 1 H# N171 $end
$var wire 1 I# N174 $end
$var wire 1 J# N177 $end
$var wire 1 K# N180 $end
$var wire 1 L# N183 $end
$var wire 1 M# N184 $end
$var wire 1 N# N185 $end
$var wire 1 O# N186 $end
$var wire 1 P# N187 $end
$var wire 1 Q# N188 $end
$var wire 1 R# N189 $end
$var wire 1 S# N190 $end
$var wire 1 T# N191 $end
$var wire 1 U# N192 $end
$var wire 1 V# N193 $end
$var wire 1 W# N194 $end
$var wire 1 X# N195 $end
$var wire 1 Y# N196 $end
$var wire 1 Z# N197 $end
$var wire 1 [# N198 $end
$var wire 1 \# N199 $end
$var wire 1 ]# N203 $end
$var wire 1 Z N21 $end
$var wire 1 ^# N213 $end
$var wire 1 _# N223 $end
$var wire 1 `# N224 $end
$var wire 1 a# N227 $end
$var wire 1 b# N230 $end
$var wire 1 c# N233 $end
$var wire 1 d# N236 $end
$var wire 1 e# N239 $end
$var wire 1 f# N24 $end
$var wire 1 g# N242 $end
$var wire 1 h# N243 $end
$var wire 1 i# N246 $end
$var wire 1 j# N247 $end
$var wire 1 k# N250 $end
$var wire 1 l# N251 $end
$var wire 1 m# N254 $end
$var wire 1 n# N255 $end
$var wire 1 o# N256 $end
$var wire 1 p# N257 $end
$var wire 1 q# N258 $end
$var wire 1 r# N259 $end
$var wire 1 s# N260 $end
$var wire 1 t# N263 $end
$var wire 1 u# N264 $end
$var wire 1 v# N267 $end
$var wire 1 t N27 $end
$var wire 1 w# N270 $end
$var wire 1 x# N273 $end
$var wire 1 y# N276 $end
$var wire 1 z# N279 $end
$var wire 1 {# N282 $end
$var wire 1 |# N285 $end
$var wire 1 }# N288 $end
$var wire 1 ~# N289 $end
$var wire 1 !$ N290 $end
$var wire 1 "$ N291 $end
$var wire 1 #$ N292 $end
$var wire 1 $$ N293 $end
$var wire 1 %$ N294 $end
$var wire 1 &$ N295 $end
$var wire 1 '$ N296 $end
$var wire 1 ($ N30 $end
$var wire 1 )$ N300 $end
$var wire 1 *$ N301 $end
$var wire 1 +$ N302 $end
$var wire 1 ,$ N303 $end
$var wire 1 -$ N304 $end
$var wire 1 .$ N305 $end
$var wire 1 /$ N306 $end
$var wire 1 0$ N307 $end
$var wire 1 1$ N308 $end
$var wire 1 2$ N309 $end
$var wire 1 3$ N319 $end
$var wire 1 4$ N329 $end
$var wire 1 5$ N330 $end
$var wire 1 6$ N331 $end
$var wire 1 7$ N332 $end
$var wire 1 8$ N333 $end
$var wire 1 9$ N334 $end
$var wire 1 :$ N335 $end
$var wire 1 ;$ N336 $end
$var wire 1 <$ N337 $end
$var wire 1 =$ N338 $end
$var wire 1 >$ N339 $end
$var wire 1 =" N34 $end
$var wire 1 ?$ N340 $end
$var wire 1 @$ N341 $end
$var wire 1 A$ N342 $end
$var wire 1 B$ N343 $end
$var wire 1 C$ N344 $end
$var wire 1 D$ N345 $end
$var wire 1 E$ N346 $end
$var wire 1 F$ N347 $end
$var wire 1 G$ N348 $end
$var wire 1 H$ N349 $end
$var wire 1 I$ N350 $end
$var wire 1 J$ N351 $end
$var wire 1 K$ N352 $end
$var wire 1 L$ N353 $end
$var wire 1 M$ N354 $end
$var wire 1 N$ N355 $end
$var wire 1 O$ N356 $end
$var wire 1 P$ N357 $end
$var wire 1 Q$ N360 $end
$var wire 1 R$ N37 $end
$var wire 1 S$ N370 $end
$var wire 1 T$ N371 $end
$var wire 1 U$ N372 $end
$var wire 1 V$ N373 $end
$var wire 1 W$ N374 $end
$var wire 1 X$ N375 $end
$var wire 1 Y$ N376 $end
$var wire 1 Z$ N377 $end
$var wire 1 [$ N378 $end
$var wire 1 \$ N379 $end
$var wire 1 ]$ N380 $end
$var wire 1 ^$ N381 $end
$var wire 1 _$ N386 $end
$var wire 1 `$ N393 $end
$var wire 1 a$ N399 $end
$var wire 1 b$ N4 $end
$var wire 1 b" N40 $end
$var wire 1 c$ N404 $end
$var wire 1 d$ N407 $end
$var wire 1 e$ N411 $end
$var wire 1 f$ N414 $end
$var wire 1 g$ N415 $end
$var wire 1 h$ N416 $end
$var wire 1 i$ N417 $end
$var wire 1 j$ N418 $end
$var wire 1 k$ N419 $end
$var wire 1 l$ N420 $end
$var wire 1 m$ N421 $end
$var wire 1 n$ N422 $end
$var wire 1 o$ N425 $end
$var wire 1 p$ N428 $end
$var wire 1 q$ N429 $end
$var wire 1 r$ N43 $end
$var wire 1 s$ N430 $end
$var wire 1 t$ N431 $end
$var wire 1 u$ N432 $end
$var wire 1 v" N47 $end
$var wire 1 v$ N50 $end
$var wire 1 x" N53 $end
$var wire 1 w$ N56 $end
$var wire 1 z" N60 $end
$var wire 1 x$ N63 $end
$var wire 1 |" N66 $end
$var wire 1 y$ N69 $end
$var wire 1 ~" N73 $end
$var wire 1 z$ N76 $end
$var wire 1 "# N79 $end
$var wire 1 ## N8 $end
$var wire 1 {$ N82 $end
$var wire 1 %# N86 $end
$var wire 1 |$ N89 $end
$var wire 1 '# N92 $end
$var wire 1 }$ N95 $end
$var wire 1 )# N99 $end
$var wire 1 ~$ out $end
$upscope $end
$scope module B $end
$var wire 1 *# N1 $end
$var wire 1 +# N102 $end
$var wire 1 $ N105 $end
$var wire 1 ,# N108 $end
$var wire 1 -# N11 $end
$var wire 1 ' N112 $end
$var wire 1 ( N115 $end
$var wire 1 .# N118 $end
$var wire 1 /# N119 $end
$var wire 1 0# N122 $end
$var wire 1 1# N123 $end
$var wire 1 2# N126 $end
$var wire 1 3# N127 $end
$var wire 1 4# N130 $end
$var wire 1 5# N131 $end
$var wire 1 6# N134 $end
$var wire 1 7# N135 $end
$var wire 1 8# N138 $end
$var wire 1 9# N139 $end
$var wire 1 5 N14 $end
$var wire 1 :# N142 $end
$var wire 1 ;# N143 $end
$var wire 1 <# N146 $end
$var wire 1 =# N147 $end
$var wire 1 ># N150 $end
$var wire 1 ?# N151 $end
$var wire 1 @# N154 $end
$var wire 1 A# N157 $end
$var wire 1 B# N158 $end
$var wire 1 C# N159 $end
$var wire 1 D# N162 $end
$var wire 1 E# N165 $end
$var wire 1 F# N168 $end
$var wire 1 G# N17 $end
$var wire 1 H# N171 $end
$var wire 1 I# N174 $end
$var wire 1 J# N177 $end
$var wire 1 K# N180 $end
$var wire 1 L# N183 $end
$var wire 1 M# N184 $end
$var wire 1 N# N185 $end
$var wire 1 O# N186 $end
$var wire 1 P# N187 $end
$var wire 1 Q# N188 $end
$var wire 1 R# N189 $end
$var wire 1 S# N190 $end
$var wire 1 T# N191 $end
$var wire 1 U# N192 $end
$var wire 1 V# N193 $end
$var wire 1 W# N194 $end
$var wire 1 X# N195 $end
$var wire 1 Y# N196 $end
$var wire 1 Z# N197 $end
$var wire 1 [# N198 $end
$var wire 1 \# N199 $end
$var wire 1 ]# N203 $end
$var wire 1 Z N21 $end
$var wire 1 ^# N213 $end
$var wire 1 _# N223 $end
$var wire 1 `# N224 $end
$var wire 1 a# N227 $end
$var wire 1 b# N230 $end
$var wire 1 c# N233 $end
$var wire 1 d# N236 $end
$var wire 1 e# N239 $end
$var wire 1 f# N24 $end
$var wire 1 g# N242 $end
$var wire 1 h# N243 $end
$var wire 1 i# N246 $end
$var wire 1 j# N247 $end
$var wire 1 k# N250 $end
$var wire 1 l# N251 $end
$var wire 1 m# N254 $end
$var wire 1 n# N255 $end
$var wire 1 o# N256 $end
$var wire 1 p# N257 $end
$var wire 1 q# N258 $end
$var wire 1 r# N259 $end
$var wire 1 s# N260 $end
$var wire 1 t# N263 $end
$var wire 1 u# N264 $end
$var wire 1 v# N267 $end
$var wire 1 t N27 $end
$var wire 1 w# N270 $end
$var wire 1 x# N273 $end
$var wire 1 y# N276 $end
$var wire 1 z# N279 $end
$var wire 1 {# N282 $end
$var wire 1 |# N285 $end
$var wire 1 }# N288 $end
$var wire 1 ~# N289 $end
$var wire 1 !$ N290 $end
$var wire 1 "$ N291 $end
$var wire 1 #$ N292 $end
$var wire 1 $$ N293 $end
$var wire 1 %$ N294 $end
$var wire 1 &$ N295 $end
$var wire 1 '$ N296 $end
$var wire 1 ($ N30 $end
$var wire 1 )$ N300 $end
$var wire 1 *$ N301 $end
$var wire 1 +$ N302 $end
$var wire 1 ,$ N303 $end
$var wire 1 -$ N304 $end
$var wire 1 .$ N305 $end
$var wire 1 /$ N306 $end
$var wire 1 0$ N307 $end
$var wire 1 1$ N308 $end
$var wire 1 2$ N309 $end
$var wire 1 3$ N319 $end
$var wire 1 4$ N329 $end
$var wire 1 5$ N330 $end
$var wire 1 6$ N331 $end
$var wire 1 7$ N332 $end
$var wire 1 8$ N333 $end
$var wire 1 9$ N334 $end
$var wire 1 :$ N335 $end
$var wire 1 ;$ N336 $end
$var wire 1 <$ N337 $end
$var wire 1 =$ N338 $end
$var wire 1 >$ N339 $end
$var wire 1 =" N34 $end
$var wire 1 ?$ N340 $end
$var wire 1 @$ N341 $end
$var wire 1 A$ N342 $end
$var wire 1 B$ N343 $end
$var wire 1 C$ N344 $end
$var wire 1 D$ N345 $end
$var wire 1 E$ N346 $end
$var wire 1 F$ N347 $end
$var wire 1 G$ N348 $end
$var wire 1 H$ N349 $end
$var wire 1 I$ N350 $end
$var wire 1 J$ N351 $end
$var wire 1 K$ N352 $end
$var wire 1 L$ N353 $end
$var wire 1 M$ N354 $end
$var wire 1 N$ N355 $end
$var wire 1 O$ N356 $end
$var wire 1 P$ N357 $end
$var wire 1 Q$ N360 $end
$var wire 1 R$ N37 $end
$var wire 1 S$ N370 $end
$var wire 1 T$ N371 $end
$var wire 1 U$ N372 $end
$var wire 1 V$ N373 $end
$var wire 1 W$ N374 $end
$var wire 1 X$ N375 $end
$var wire 1 Y$ N376 $end
$var wire 1 Z$ N377 $end
$var wire 1 [$ N378 $end
$var wire 1 \$ N379 $end
$var wire 1 ]$ N380 $end
$var wire 1 ^$ N381 $end
$var wire 1 _$ N386 $end
$var wire 1 `$ N393 $end
$var wire 1 a$ N399 $end
$var wire 1 b$ N4 $end
$var wire 1 b" N40 $end
$var wire 1 c$ N404 $end
$var wire 1 d$ N407 $end
$var wire 1 e$ N411 $end
$var wire 1 f$ N414 $end
$var wire 1 g$ N415 $end
$var wire 1 h$ N416 $end
$var wire 1 i$ N417 $end
$var wire 1 j$ N418 $end
$var wire 1 k$ N419 $end
$var wire 1 l$ N420 $end
$var wire 1 m$ N421 $end
$var wire 1 n$ N422 $end
$var wire 1 o$ N425 $end
$var wire 1 p$ N428 $end
$var wire 1 q$ N429 $end
$var wire 1 r$ N43 $end
$var wire 1 s$ N430 $end
$var wire 1 t$ N431 $end
$var wire 1 u$ N432 $end
$var wire 1 v" N47 $end
$var wire 1 v$ N50 $end
$var wire 1 x" N53 $end
$var wire 1 w$ N56 $end
$var wire 1 z" N60 $end
$var wire 1 x$ N63 $end
$var wire 1 |" N66 $end
$var wire 1 y$ N69 $end
$var wire 1 ~" N73 $end
$var wire 1 z$ N76 $end
$var wire 1 "# N79 $end
$var wire 1 ## N8 $end
$var wire 1 {$ N82 $end
$var wire 1 %# N86 $end
$var wire 1 |$ N89 $end
$var wire 1 '# N92 $end
$var wire 1 }$ N95 $end
$var wire 1 )# N99 $end
$var wire 1 ! out $end
$upscope $end
$upscope $end
$upscope $end
$enddefinitions $end
$comment Show the parameter values. $end
$dumpall
$end
#0
$dumpvars
z~$
0}$
0|$
0{$
0z$
0y$
0x$
0w$
0v$
xu$
xt$
xs$
0r$
xq$
xp$
xo$
xn$
xm$
0l$
0k$
0j$
0i$
xh$
0g$
xf$
xe$
xd$
xc$
0b$
xa$
x`$
x_$
x^$
x]$
x\$
x[$
xZ$
xY$
xX$
xW$
xV$
xU$
xT$
0S$
0R$
0Q$
xP$
xO$
xN$
xM$
xL$
xK$
xJ$
xI$
xH$
xG$
xF$
xE$
xD$
xC$
xB$
xA$
x@$
x?$
x>$
x=$
x<$
x;$
x:$
x9$
x8$
x7$
x6$
x5$
04$
03$
02$
01$
00$
0/$
0.$
0-$
0,$
0+$
0*$
0)$
0($
x'$
x&$
x%$
x$$
x#$
x"$
x!$
x~#
x}#
x|#
x{#
xz#
xy#
xx#
xw#
xv#
xu#
xt#
xs#
xr#
xq#
xp#
xo#
xn#
xm#
xl#
xk#
xj#
xi#
xh#
xg#
0f#
xe#
xd#
xc#
xb#
xa#
x`#
0_#
0^#
0]#
x\#
x[#
xZ#
xY#
xX#
xW#
xV#
xU#
xT#
xS#
xR#
xQ#
xP#
xO#
xN#
xM#
xL#
xK#
xJ#
xI#
xH#
0G#
xF#
xE#
xD#
xC#
xB#
xA#
x@#
0?#
0>#
0=#
0<#
0;#
0:#
09#
08#
07#
06#
05#
04#
03#
02#
01#
00#
0/#
0.#
0-#
0,#
0+#
0*#
0)#
0(#
0'#
0&#
0%#
0$#
0##
0"#
0!#
0~"
0}"
0|"
0{"
0z"
0y"
0x"
0w"
0v"
0u"
0t"
0s"
0r"
0q"
0p"
0o"
0n"
0m"
0l"
0k"
0j"
0i"
0h"
0g"
0f"
0e"
0d"
0c"
0b"
0a"
0`"
0_"
0^"
0]"
0\"
0["
0Z"
0Y"
0X"
0W"
0V"
0U"
0T"
0S"
0R"
0Q"
0P"
0O"
0N"
0M"
0L"
0K"
0J"
0I"
0H"
0G"
0F"
0E"
0D"
0C"
0B"
0A"
0@"
0?"
0>"
0="
0<"
0;"
0:"
09"
08"
07"
06"
05"
04"
03"
02"
01"
00"
0/"
0."
0-"
0,"
0+"
0*"
0)"
0("
0'"
0&"
0%"
0$"
0#"
0""
0!"
0~
0}
0|
0{
0z
0y
0x
0w
0v
0u
0t
0s
0r
0q
0p
0o
0n
0m
0l
0k
0j
0i
0h
0g
0f
0e
0d
0c
0b
0a
0`
0_
0^
0]
0\
0[
0Z
0Y
0X
0W
0V
0U
0T
0S
0R
0Q
0P
0O
0N
0M
0L
0K
0J
0I
0H
0G
0F
0E
0D
0C
0B
0A
0@
0?
0>
0=
0<
0;
0:
09
08
07
06
05
04
03
02
01
00
0/
0.
0-
0,
0+
0*
0)
0(
0'
0&
0%
0$
0#
0"
z!
$end
#20
14#
1/
#30
0Q#
1x"
#40
1]$
1\"
#50
1M$
1L"
#60
1V$
1U"
#70
1y
#90
xQ#
1M
#100
1Y$
1X"
#120
0Y#
1$
#130
1p
#150
1q$
1q"
#170
1I#
1E
#190
1g#
1d
#200
1z
#220
1G#
1C
#260
1O$
1N"
#280
1u"
#290
12#
1-
#300
1K
#310
1J#
1F
#360
1A"
#380
16#
11
#390
1H
#400
1;$
19"
#410
1^#
1[
#420
xg#
1*#
1"
#450
1v
#460
1c$
1c"
#470
0M#
1t
#530
1($
1&"
#560
1<#
18
#570
1C#
1?
#630
1W$
1V"
#640
1X$
1W"
#650
1f$
1f"
#660
0P#
1v"
#670
1r
#700
xW$
1Q$
1P"
#710
xJ#
1}$
1(#
#720
1r#
1o
#750
1)$
1'"
#760
1.$
1,"
#780
1]"
#790
0V#
1%#
#810
1f#
1c
#820
1J$
1I"
#830
1O"
#850
1q
#860
1Z$
1Y"
#910
1`
#920
1]
#950
1+$
1)"
#960
13"
#970
xX$
0S#
1|"
#980
x]$
1b$
1a"
#990
1-$
1+"
#1010
1N
#1020
1q#
1n
#1030
1a$
1`"
#1110
1<"
#1120
1p#
1m
#1130
1r$
1r"
#1140
1?$
1>"
#1150
1^"
#1170
xc$
1y$
1}"
#1180
1n$
1n"
#1210
xO$
11$
1/"
#1220
1_
#1240
1|
#1250
1n#
1k
#1260
1S$
1R"
#1270
1i#
1f
#1310
1S
#1350
1t#
0B#
15
#1360
19$
17"
#1390
xn$
1i$
1i"
#1430
0N#
1="
#1460
xM$
1/$
1-"
#1480
15"
#1490
x?$
13$
11"
#1500
1g
#1510
1S"
#1520
1x$
1{"
#1560
1T"
#1590
1]#
1Y
#1600
1*$
1("
#1640
xV#
1R
#1650
1|#
0Z#
1'
#1690
1E$
1D"
#1700
1T
#1740
15#
10
#1770
0U#
xY$
1"#
#1810
1d$
1d"
#1830
1}
#1840
xP#
1L
#1890
17#
12
#1940
1$"
#1950
1:"
#1960
1C$
1B"
